{"name":"InitialTest","id":"SerenityInitialTests:InitialTest","testCaseName":"SerenityInitialTests","testSteps":[{"number":1,"description":"Fabrizio the trainer get users","duration":2984,"startTime":"2021-08-10T11:53:28.929-03:00[America/Buenos_Aires]","result":"SUCCESS","precondition":false,"level":0,"children":[{"number":2,"description":"Fabrizio the trainer executes a GET on the resource /users?page\u003d1","duration":2876,"startTime":"2021-08-10T11:53:29.033-03:00[America/Buenos_Aires]","result":"SUCCESS","precondition":false,"level":1,"children":[{"number":3,"description":"GET http://localhost:5000/api/users?page\u003d1\r","duration":1,"startTime":"2021-08-10T11:53:31.905-03:00[America/Buenos_Aires]","result":"SUCCESS","restQuery":{"method":"GET","path":"http://localhost:5000/api/users?page\u003d1\r","content":"\r","contentType":"application/json","requestHeaders":"header1\u003dvalue1\r\n\t\t\t\tAccept\u003d*/*\r\n\t\t\t\tContent-Type\u003dapplication/json; charset\u003dUTF-8\r","requestCookies":"\r","responseHeaders":"X-Powered-By: Express\r\nAccess-Control-Allow-Origin: *\r\nContent-Type: application/json; charset\u003dutf-8\r\nContent-Length: 539\r\nETag: W/\"21b-fFOA+z2p0qqZtiTcYG5d6jtK5Cs\"\r\nDate: Tue, 10 Aug 2021 14:53:31 GMT\r\nConnection: keep-alive\r\nKeep-Alive: timeout\u003d5\r","responseCookies":"\r","responseBody":"{\n    \"page\": 1,\n    \"per_page\": 3,\n    \"total\": 12,\n    \"total_pages\": 4,\n    \"data\": [\n        {\n            \"id\": 1,\n            \"email\": \"george.bluth@reqres.in\",\n            \"first_name\": \"George\",\n            \"last_name\": \"Bluth\",\n            \"avatar\": \"https://s3.amazonaws.com/uifaces/faces/twitter/calebogden/128.jpg\"\n        },\n        {\n            \"id\": 2,\n            \"email\": \"janet.weaver@reqres.in\",\n            \"first_name\": \"Janet\",\n            \"last_name\": \"Weaver\",\n            \"avatar\": \"https://s3.amazonaws.com/uifaces/faces/twitter/josephstein/128.jpg\"\n        },\n        {\n            \"id\": 3,\n            \"email\": \"emma.wong@reqres.in\",\n            \"first_name\": \"Emma\",\n            \"last_name\": \"Wong\",\n            \"avatar\": \"https://s3.amazonaws.com/uifaces/faces/twitter/olegpogodaev/128.jpg\"\n        }\n    ]\n}","statusCode":200},"precondition":false,"level":2}]}]},{"number":4,"description":"Then usuario no es nulo should be not null","duration":104,"startTime":"2021-08-10T11:53:32.071-03:00[America/Buenos_Aires]","result":"SUCCESS","precondition":false,"level":0},{"number":5,"description":"Then el email del usuario should be \u0027george.bluth@reqres.in\u0027","duration":0,"startTime":"2021-08-10T11:53:32.179-03:00[America/Buenos_Aires]","result":"SUCCESS","precondition":false,"level":0}],"userStory":{"id":"SerenityInitialTests","storyName":"Serenity initial tests","storyClassName":"SerenityInitialTests","path":"","type":"story"},"featureTag":{"name":"Serenity initial tests","type":"story","displayName":"Serenity initial tests"},"title":"Initial test","tags":[{"name":"Serenity initial tests","type":"story","displayName":"Serenity initial tests"}],"startTime":"2021-08-10T11:53:28.552-03:00[America/Buenos_Aires]","duration":3629,"projectKey":"","isManualTestingUpToDate":false,"manual":false,"testSource":"JUnit","actors":[{"name":"Fabrizio the trainer","can":["call an API at http://localhost:5000/api"]}],"order":0,"result":"SUCCESS"}